%!PS-Adobe-3.0 EPSF-3.0
%%Creator: PS_dot.c,v 1.38 2007/02/02 15:18:13 ivo Exp $, ViennaRNA-1.8.2
%%CreationDate: Thu Apr 11 11:08:15 2013
%%Title: RNA Secondary Structure Plot
%%BoundingBox: 66 210 518 662
%%DocumentFonts: Helvetica
%%Pages: 1
%%EndComments

%Options: 
% to switch off outline pairs of sequence comment or
% delete the appropriate line near the end of the file

%%BeginProlog
/RNAplot 100 dict def
RNAplot begin
/fsize  14 def
/outlinecolor {0.2 setgray} bind def
/paircolor    {0.2 setgray} bind def
/seqcolor     {0   setgray} bind def
/cshow  { dup stringwidth pop -2 div fsize -3 div rmoveto show} bind def
/min { 2 copy gt { exch } if pop } bind def
/max { 2 copy lt { exch } if pop } bind def
/drawoutline {
  gsave outlinecolor newpath
  coor 0 get aload pop 0.8 0 360 arc % draw 5' circle of 1st sequence
  currentdict /cutpoint known        % check if cutpoint is defined
  {coor 0 cutpoint getinterval
   {aload pop lineto} forall         % draw outline of 1st sequence
   coor cutpoint get aload pop
   2 copy moveto 0.8 0 360 arc       % draw 5' circle of 2nd sequence
   coor cutpoint coor length cutpoint sub getinterval
   {aload pop lineto} forall}        % draw outline of 2nd sequence
  {coor {aload pop lineto} forall}   % draw outline as a whole
  ifelse
  stroke grestore
} bind def
/drawpairs {
  paircolor
  0.7 setlinewidth
  [9 3.01] 9 setdash
  newpath
  pairs {aload pop
     coor exch 1 sub get aload pop moveto
     coor exch 1 sub get aload pop lineto
  } forall
  stroke
} bind def
% draw bases
/drawbases {
  [] 0 setdash
  seqcolor
  0
  coor {
    aload pop moveto
    dup sequence exch 1 getinterval cshow
    1 add
  } forall
  pop
} bind def

/init {
  /Helvetica findfont fsize scalefont setfont
  1 setlinejoin
  1 setlinecap
  0.8 setlinewidth
  72 216 translate
  % find the coordinate range
  /xmax -1000 def /xmin 10000 def
  /ymax -1000 def /ymin 10000 def
  coor {
      aload pop
      dup ymin lt {dup /ymin exch def} if
      dup ymax gt {/ymax exch def} {pop} ifelse
      dup xmin lt {dup /xmin exch def} if
      dup xmax gt {/xmax exch def} {pop} ifelse
  } forall
  /size {xmax xmin sub ymax ymin sub max} bind def
  72 6 mul size div dup scale
  size xmin sub xmax sub 2 div size ymin sub ymax sub 2 div
  translate
} bind def
end
%%EndProlog
RNAplot begin
% data start here
/sequence (\
GGCCCUGUAGUGAAGUUCAUAGUGAGUUGCAAGCUCAUUGAUGUACAUUGAAGGUGUGCCGGGGUCU\
) def
/coor [
[113.006 223.723]
[112.313 208.739]
[111.620 193.755]
[110.927 178.771]
[110.235 163.787]
[109.542 148.803]
[108.849 133.819]
[93.190 132.518]
[80.475 124.705]
[73.074 112.663]
[58.329 115.420]
[43.585 118.176]
[28.840 120.932]
[14.382 129.786]
[1.871 118.343]
[9.403 103.154]
[26.084 106.187]
[40.828 103.431]
[55.573 100.675]
[70.318 97.919]
[74.005 85.521]
[82.605 75.859]
[77.186 61.872]
[71.767 47.885]
[66.349 33.898]
[60.930 19.911]
[46.072 15.037]
[37.866 1.725]
[40.188 -13.739]
[51.941 -24.054]
[67.576 -24.349]
[79.710 -14.485]
[82.614 0.880]
[74.917 14.492]
[80.336 28.479]
[85.754 42.466]
[91.173 56.453]
[96.592 70.441]
[108.044 70.273]
[119.097 74.528]
[128.056 82.860]
[133.432 94.284]
[134.192 107.278]
[149.192 107.278]
[164.192 107.278]
[179.192 107.278]
[194.192 107.278]
[204.104 95.183]
[219.481 92.341]
[233.062 100.092]
[238.435 114.778]
[233.062 129.463]
[219.481 137.215]
[204.104 134.372]
[194.192 122.278]
[179.192 122.278]
[164.192 122.278]
[149.192 122.278]
[134.192 122.278]
[123.833 133.127]
[124.526 148.111]
[125.219 163.095]
[125.911 178.079]
[126.604 193.063]
[127.297 208.047]
[127.990 223.031]
[131.068 242.166]
] def
/pairs [
[1 66]
[2 65]
[3 64]
[4 63]
[5 62]
[6 61]
[7 60]
[10 20]
[11 19]
[12 18]
[13 17]
[22 38]
[23 37]
[24 36]
[25 35]
[26 34]
[43 59]
[44 58]
[45 57]
[46 56]
[47 55]
] def

init

% switch off outline pairs or bases by removing these lines
drawoutline
drawpairs
drawbases
% show it
showpage
end
%%EOF
