%!PS-Adobe-3.0 EPSF-3.0
%%Creator: PS_dot.c,v 1.38 2007/02/02 15:18:13 ivo Exp $, ViennaRNA-1.8.2
%%CreationDate: Thu Apr 11 11:08:15 2013
%%Title: RNA Secondary Structure Plot
%%BoundingBox: 66 210 518 662
%%DocumentFonts: Helvetica
%%Pages: 1
%%EndComments

%Options: 
% to switch off outline pairs of sequence comment or
% delete the appropriate line near the end of the file

%%BeginProlog
/RNAplot 100 dict def
RNAplot begin
/fsize  14 def
/outlinecolor {0.2 setgray} bind def
/paircolor    {0.2 setgray} bind def
/seqcolor     {0   setgray} bind def
/cshow  { dup stringwidth pop -2 div fsize -3 div rmoveto show} bind def
/min { 2 copy gt { exch } if pop } bind def
/max { 2 copy lt { exch } if pop } bind def
/drawoutline {
  gsave outlinecolor newpath
  coor 0 get aload pop 0.8 0 360 arc % draw 5' circle of 1st sequence
  currentdict /cutpoint known        % check if cutpoint is defined
  {coor 0 cutpoint getinterval
   {aload pop lineto} forall         % draw outline of 1st sequence
   coor cutpoint get aload pop
   2 copy moveto 0.8 0 360 arc       % draw 5' circle of 2nd sequence
   coor cutpoint coor length cutpoint sub getinterval
   {aload pop lineto} forall}        % draw outline of 2nd sequence
  {coor {aload pop lineto} forall}   % draw outline as a whole
  ifelse
  stroke grestore
} bind def
/drawpairs {
  paircolor
  0.7 setlinewidth
  [9 3.01] 9 setdash
  newpath
  pairs {aload pop
     coor exch 1 sub get aload pop moveto
     coor exch 1 sub get aload pop lineto
  } forall
  stroke
} bind def
% draw bases
/drawbases {
  [] 0 setdash
  seqcolor
  0
  coor {
    aload pop moveto
    dup sequence exch 1 getinterval cshow
    1 add
  } forall
  pop
} bind def

/init {
  /Helvetica findfont fsize scalefont setfont
  1 setlinejoin
  1 setlinecap
  0.8 setlinewidth
  72 216 translate
  % find the coordinate range
  /xmax -1000 def /xmin 10000 def
  /ymax -1000 def /ymin 10000 def
  coor {
      aload pop
      dup ymin lt {dup /ymin exch def} if
      dup ymax gt {/ymax exch def} {pop} ifelse
      dup xmin lt {dup /xmin exch def} if
      dup xmax gt {/xmax exch def} {pop} ifelse
  } forall
  /size {xmax xmin sub ymax ymin sub max} bind def
  72 6 mul size div dup scale
  size xmin sub xmax sub 2 div size ymin sub ymax sub 2 div
  translate
} bind def
end
%%EndProlog
RNAplot begin
% data start here
/sequence (\
GAGACGUUAGUAAACUUAUUACAUAGGCCCGUCAAGACUAAAUAACAGGUGUAAAUCCUGUACAUCUCA\
) def
/coor [
[112.008 220.831]
[111.335 205.846]
[110.662 190.861]
[109.989 175.876]
[101.689 163.509]
[108.799 149.376]
[108.126 134.391]
[92.018 132.618]
[79.209 124.091]
[72.157 111.340]
[57.292 113.354]
[42.428 115.367]
[27.564 117.381]
[16.740 129.222]
[0.744 128.000]
[-8.154 114.650]
[-3.128 99.415]
[11.966 93.981]
[25.550 102.516]
[40.415 100.503]
[55.279 98.489]
[70.143 96.476]
[74.909 83.438]
[85.025 73.931]
[81.034 59.471]
[77.044 45.012]
[65.914 33.768]
[69.987 19.440]
[55.691 13.103]
[48.860 -0.964]
[52.719 -16.118]
[65.446 -25.204]
[81.032 -23.931]
[92.117 -12.902]
[93.468 2.677]
[84.446 15.450]
[95.290 25.660]
[91.503 41.021]
[95.494 55.481]
[99.484 69.940]
[110.578 70.734]
[120.992 75.618]
[129.225 84.188]
[133.985 95.489]
[134.391 108.126]
[149.376 108.799]
[164.361 109.472]
[179.345 110.145]
[194.330 110.818]
[204.775 99.181]
[220.264 97.031]
[233.484 105.384]
[238.193 120.296]
[232.166 134.725]
[218.251 141.860]
[203.017 138.330]
[193.657 125.803]
[178.673 125.130]
[163.688 124.457]
[148.703 123.784]
[133.718 123.111]
[123.111 133.718]
[123.784 148.703]
[132.133 162.142]
[124.974 175.203]
[125.647 190.188]
[126.320 205.173]
[126.993 220.158]
[130.046 239.298]
] def
/pairs [
[1 68]
[2 67]
[3 66]
[4 65]
[6 63]
[7 62]
[10 22]
[11 21]
[12 20]
[13 19]
[24 40]
[25 39]
[26 38]
[28 36]
[45 61]
[46 60]
[47 59]
[48 58]
[49 57]
] def

init

% switch off outline pairs or bases by removing these lines
drawoutline
drawpairs
drawbases
% show it
showpage
end
%%EOF
