%!PS-Adobe-3.0 EPSF-3.0
%%Creator: PS_dot.c,v 1.38 2007/02/02 15:18:13 ivo Exp $, ViennaRNA-1.8.2
%%CreationDate: Thu Apr 11 11:08:13 2013
%%Title: RNA Secondary Structure Plot
%%BoundingBox: 66 210 518 662
%%DocumentFonts: Helvetica
%%Pages: 1
%%EndComments

%Options: 
% to switch off outline pairs of sequence comment or
% delete the appropriate line near the end of the file

%%BeginProlog
/RNAplot 100 dict def
RNAplot begin
/fsize  14 def
/outlinecolor {0.2 setgray} bind def
/paircolor    {0.2 setgray} bind def
/seqcolor     {0   setgray} bind def
/cshow  { dup stringwidth pop -2 div fsize -3 div rmoveto show} bind def
/min { 2 copy gt { exch } if pop } bind def
/max { 2 copy lt { exch } if pop } bind def
/drawoutline {
  gsave outlinecolor newpath
  coor 0 get aload pop 0.8 0 360 arc % draw 5' circle of 1st sequence
  currentdict /cutpoint known        % check if cutpoint is defined
  {coor 0 cutpoint getinterval
   {aload pop lineto} forall         % draw outline of 1st sequence
   coor cutpoint get aload pop
   2 copy moveto 0.8 0 360 arc       % draw 5' circle of 2nd sequence
   coor cutpoint coor length cutpoint sub getinterval
   {aload pop lineto} forall}        % draw outline of 2nd sequence
  {coor {aload pop lineto} forall}   % draw outline as a whole
  ifelse
  stroke grestore
} bind def
/drawpairs {
  paircolor
  0.7 setlinewidth
  [9 3.01] 9 setdash
  newpath
  pairs {aload pop
     coor exch 1 sub get aload pop moveto
     coor exch 1 sub get aload pop lineto
  } forall
  stroke
} bind def
% draw bases
/drawbases {
  [] 0 setdash
  seqcolor
  0
  coor {
    aload pop moveto
    dup sequence exch 1 getinterval cshow
    1 add
  } forall
  pop
} bind def

/init {
  /Helvetica findfont fsize scalefont setfont
  1 setlinejoin
  1 setlinecap
  0.8 setlinewidth
  72 216 translate
  % find the coordinate range
  /xmax -1000 def /xmin 10000 def
  /ymax -1000 def /ymin 10000 def
  coor {
      aload pop
      dup ymin lt {dup /ymin exch def} if
      dup ymax gt {/ymax exch def} {pop} ifelse
      dup xmin lt {dup /xmin exch def} if
      dup xmax gt {/xmax exch def} {pop} ifelse
  } forall
  /size {xmax xmin sub ymax ymin sub max} bind def
  72 6 mul size div dup scale
  size xmin sub xmax sub 2 div size ymin sub ymax sub 2 div
  translate
} bind def
end
%%EndProlog
RNAplot begin
% data start here
/sequence (\
CAAGACGUAGCUAUAACCCAAAGCAUUCAGCUUACACCUGAAAGAUAUCUCCCCUAAACGAGAUCGCCUUGA\
) def
/coor [
[111.471 221.044]
[110.825 206.058]
[110.180 191.072]
[109.535 176.086]
[101.257 163.703]
[108.394 149.583]
[107.748 134.597]
[91.437 132.578]
[78.613 123.688]
[71.777 110.592]
[56.864 112.203]
[41.951 113.813]
[35.144 127.658]
[21.921 135.605]
[6.501 135.119]
[-6.195 126.355]
[-12.116 112.109]
[-9.373 96.928]
[1.159 85.655]
[16.119 81.887]
[30.734 86.828]
[40.340 98.900]
[55.253 97.289]
[70.166 95.679]
[75.536 82.386]
[86.439 73.078]
[83.236 58.424]
[80.033 43.770]
[76.830 29.115]
[73.628 14.461]
[59.695 7.360]
[53.635 -7.055]
[58.308 -21.978]
[71.508 -30.363]
[87.002 -28.250]
[97.475 -16.637]
[97.981 -1.008]
[88.282 11.259]
[91.484 25.913]
[94.687 40.567]
[97.890 55.221]
[101.093 69.875]
[111.909 71.155]
[121.920 76.319]
[129.736 84.944]
[134.171 96.107]
[134.422 108.491]
[149.391 109.458]
[164.360 110.426]
[179.328 111.394]
[194.297 112.361]
[204.105 100.337]
[219.116 96.406]
[233.558 102.080]
[241.878 115.178]
[240.877 130.663]
[230.940 142.580]
[215.887 146.348]
[201.507 140.517]
[193.329 127.330]
[178.361 126.362]
[163.392 125.395]
[148.423 124.427]
[133.454 123.460]
[122.734 133.951]
[123.380 148.938]
[131.704 162.392]
[124.521 175.440]
[125.166 190.427]
[125.812 205.413]
[126.457 220.399]
[129.474 239.544]
] def
/pairs [
[1 71]
[2 70]
[3 69]
[4 68]
[6 66]
[7 65]
[10 24]
[11 23]
[12 22]
[26 42]
[27 41]
[28 40]
[29 39]
[30 38]
[47 64]
[48 63]
[49 62]
[50 61]
[51 60]
] def

init

% switch off outline pairs or bases by removing these lines
drawoutline
drawpairs
drawbases
% show it
showpage
end
%%EOF
